Introductory R for Social Sciences – Data Wrangling with Tidyverse
…
Step #5

Create a new column avg_satisfaction that averages life_satisfaction and financial_satisfaction as a combined wellbeing indicator.

We can achieve this with mutate()! (mutate() is to change or add new columns.)

wvs_data <- wvs_data |>
    mutate(avg_satisfaction = (life_satisfaction + financial_satisfaction) / 2)

Preview of the new column alongside the original ones:

# A tibble: 5,102 × 3
  life_satisfaction financial_satisfaction avg_satisfaction
              <dbl>                  <dbl>            <dbl>
1                 8                      5              6.5
2                10                      2              6  
3                 4                      5              4.5
4                 1                      1              1  
5                 9                      8              8.5
# ℹ 5,097 more rows
Step #6

Create age groups for each generation: “18-28”, “29-44”, “45-60”, “61+”

wvs_data <- wvs_data |>
    mutate(age_group = case_when(
        age <= 28 ~ "18-28",
        age <= 44 ~ "29-44",
        age <= 60 ~ "45-60",
        TRUE ~ "61+"
    ))

Preview of age groups:

# A tibble: 5,102 × 2
    age age_group
  <dbl> <chr>    
1    95 61+      
2    91 61+      
3    89 61+      
4    88 61+      
# ℹ 5,098 more rows
…
Create a new column called satisfaction_group that indicate whether each respondent has higher or lower than average life_satisfaction

mean_satisfaction <- mean(wvs_data$life_satisfaction, na.rm = TRUE)

wvs_data |>
    mutate(satisfaction_group = if_else(
        life_satisfaction > mean_satisfaction, # the condition to evaluate
        "higher", # if condition is fulfilled, do this
        "lower" # otherwise, do this
    )) 

Analysis 2 - How many has below and average life_satisfaction?

# A tibble: 5,102 × 18
   respondent_id country     sex     age urban_rural income_level marital_status
           <dbl> <chr>       <chr> <dbl> <chr>       <chr>        <chr>         
 1     792070014 Turkey      Male     95 Urban       Medium       Single        
 2     344070043 Hong Kong … Male     91 Urban       Low          Married       
 3     344070645 Hong Kong … Male     89 Urban       Low          Widowed       
 4     344070124 Hong Kong … Male     88 Urban       Medium       Widowed       
 5     344070040 Hong Kong … Male     88 Urban       Low          Married       
 6     344070082 Hong Kong … Male     88 Urban       Low          Married       
 7     344070833 Hong Kong … Male     87 Urban       Low          Married       
 8     344070437 Hong Kong … Fema…    86 Urban       Medium       Widowed       
 9     344070274 Hong Kong … Male     86 Urban       Medium       Separated     
10     344070159 Hong Kong … Male     86 Urban       Low          Married       
# ℹ 5,092 more rows
# ℹ 11 more variables: education <chr>, life_satisfaction <dbl>,
#   freedom_of_choice <dbl>, financial_satisfaction <dbl>, trust_people <chr>,
#   importance_of_god <dbl>, emancipative_values <dbl>, secular_values <dbl>,
#   avg_satisfaction <dbl>, age_group <chr>, satisfaction_group <chr>
…
Turkey
329
427
430
30

Bonus: Deleting columns from dataframe

Let’s say I have this column called wrong_column that I want to remove:

wvs_data <- wvs_data |> mutate(wrong_column = "random values")
wvs_data |> select(country, wrong_column) |> print(n = 3)

# A tibble: 5,102 × 2
  country       wrong_column 
  <chr>         <chr>        
1 Turkey        random values
2 Hong Kong SAR random values
3 Hong Kong SAR random values
# ℹ 5,099 more rows

Remove the wrong column with subset -:

wvs_data <- wvs_data |> 
    select(-wrong_column)

# A tibble: 5,102 × 1
  country      
  <chr>        
1 Turkey       
2 Hong Kong SAR
3 Hong Kong SAR
# ℹ 5,099 more rows
…
