Introductory R for Social Sciences – Regression and Presenting Your Result
…
Our outcome is a continuous variable, but for the purpose of this workshop practice, let’s define the outcome as “Satisfied” if the life_satisfaction score is more than 7 (inclusive), and “not Satisfied” if the score is less than 7.

The predictor/IV (\(X\)): freedom_of_choice

Dummy-coding dependent variable

Before we proceed with the calculations, we need to dummy code the dependent variable into 1 and 0, with 1 = Satisfied and 0 = Not Satisfied. More info on dummy coding here

# First, we need to create a binary outcome
wvs_cleaned <- wvs_cleaned |>
    mutate(satisfied = if_else(life_satisfaction >= 7, 1, 0))
# the if_else is from dplyr package (from session 2)

# A tibble: 5,102 × 2
  life_satisfaction satisfied
              <dbl>     <dbl>
1                 8         1
2                10         1
3                 4         0
4                 1         0
5                 9         1
# ℹ 5,097 more rows
…
