Introductory R for Social Sciences – Regression and Presenting Your Result
…
Our outcome is a continuous variable, but for the purpose of this workshop practice, let’s define the outcome as “Satisfied” if the life_satisfaction score is more than 7 (inclusive), and “not Satisfied” if the score is less than 7.

The predictor/IV (\(X\)): political_scale

Dummy-coding dependent variable

Before we proceed with the calculations, we need to dummy code the dependent variable into 1 and 0, with 1 = Satisfied and 0 = Not Satisfied. More info on dummy coding here

# First, we need to create a binary outcome
wvs_cleaned <- wvs_cleaned |>
    mutate(satisfied = if_else(life_satisfaction >= 7, 1, 0))
# the if_else is from dplyr package (from session 2)

# A tibble: 6,403 × 2
  life_satisfaction satisfied
              <dbl>     <dbl>
1                 7         1
2                 5         0
3                 8         1
4                 6         0
5                 6         0
# ℹ 6,398 more rows
…
