Post-workshop exercises – Introductory R for Social Sciences
…
Load packages

the code below will load the packages you need:

library(tidyverse)
library(car)

Load datasets

The code below will load and print the first few rows of the Duncan dataset. To find out more about this dataset, type ?Duncan in your RStudio console to open the vignette.

duncan <- as_tibble(Duncan)
print(duncan)

# A tibble: 45 × 4
   type  income education prestige
   <fct>  <int>     <int>    <int>
 1 prof      62        86       82
 2 prof      72        76       83
 3 prof      75        92       90
 4 prof      55        90       76
 5 prof      64        86       90
 6 prof      21        84       87
 7 prof      64        93       93
 8 prof      80       100       90
 9 wc        67        87       52
10 prof      72        86       88
# ℹ 35 more rows

The code below will load and print the first few rows of the WVS dataset. To find out more about this dataset, type ?WVS in your RStudio console to open the vignette.

wvs <- as_tibble(WVS)
print(wvs)

# A tibble: 5,381 × 6
   poverty     religion degree country   age gender
   <ord>       <fct>    <fct>  <fct>   <int> <fct> 
 1 Too Little  yes      no     USA        44 male  
 2 About Right yes      no     USA        40 female
 3 Too Little  yes      no     USA        36 female
 4 Too Much    yes      yes    USA        25 female
 5 Too Little  yes      yes    USA        39 male  
 6 About Right yes      no     USA        80 female
 7 Too Much    yes      no     USA        48 female
 8 Too Little  yes      no     USA        32 male  
 9 Too Little  yes      no     USA        74 female
10 Too Little  yes      no     USA        30 male  
# ℹ 5,371 more rows

Question 1

Using wvs dataset, filter the age column to include values that is more than 29. Then, select the columns age, degree, religion and poverty. Save the result to a new dataframe called wvs_filtered.

Show Answer

wvs_filtered <- wvs |> 
    filter(age > 29) |> 
    select(age, degree, religion, poverty) 

print(wvs_filtered)

# A tibble: 4,228 × 4
     age degree religion poverty    
   <int> <fct>  <fct>    <ord>      
 1    44 no     yes      Too Little 
 2    40 no     yes      About Right
 3    36 no     yes      Too Little 
 4    39 yes    yes      Too Little 
 5    80 no     yes      About Right
 6    48 no     yes      Too Much   
 7    32 no     yes      Too Little 
 8    74 no     yes      Too Little 
 9    30 no     yes      Too Little 
10    32 yes    yes      Too Little 
# ℹ 4,218 more rows

Question 2

Update the wvs dataset by creating a dummy-coded version of the gender variable, where male = 0 and female = 1. Save the results in a new column named gender_coded.

Show Answer

wvs <- wvs |> 
    mutate(gender_coded = if_else(gender == "male", 0, 1)) 

print(wvs)

# A tibble: 5,381 × 7
   poverty     religion degree country   age gender gender_coded
   <ord>       <fct>    <fct>  <fct>   <int> <fct>         <dbl>
 1 Too Little  yes      no     USA        44 male              0
 2 About Right yes      no     USA        40 female            1
 3 Too Little  yes      no     USA        36 female            1
 4 Too Much    yes      yes    USA        25 female            1
 5 Too Little  yes      yes    USA        39 male              0
 6 About Right yes      no     USA        80 female            1
 7 Too Much    yes      no     USA        48 female            1
 8 Too Little  yes      no     USA        32 male              0
 9 Too Little  yes      no     USA        74 female            1
10 Too Little  yes      no     USA        30 male              0
# ℹ 5,371 more rows
…
Show Answer

wvs <- wvs |> 
    mutate(age_category = case_when(
        age < 18 ~ "youth",
        age >= 18 & age < 35 ~ "young adult",
        age >= 35 & age < 50 ~ "adult",
        age >= 50 & age < 70 ~ "senior",
        age >= 70 ~ "elderly"
    )) 

print(wvs)

# A tibble: 5,381 × 8
   poverty     religion degree country   age gender gender_coded age_category
   <ord>       <fct>    <fct>  <fct>   <int> <fct>         <dbl> <chr>       
 1 Too Little  yes      no     USA        44 male              0 adult       
 2 About Right yes      no     USA        40 female            1 adult       
 3 Too Little  yes      no     USA        36 female            1 adult       
 4 Too Much    yes      yes    USA        25 female            1 young adult 
 5 Too Little  yes      yes    USA        39 male              0 adult       
 6 About Right yes      no     USA        80 female            1 elderly     
 7 Too Much    yes      no     USA        48 female            1 adult       
 8 Too Little  yes      no     USA        32 male              0 young adult 
 9 Too Little  yes      no     USA        74 female            1 elderly     
10 Too Little  yes      no     USA        30 male              0 young adult 
# ℹ 5,371 more rows
…
